720
13
162
246
141
954
833
70
561
982
757
737
584
877
940
887
61
668
757
746
528
289
521
241
950
484
449
130
375
915
239
369
431
119
697
716
446
391
238
19
223
962
847
299
353
175
760
649
943
485
617
705
616
312
308
306
826
169
223
535
517
200
933
148
53
107
838
739
587
392
491
656
486
496
564
35
87
479
545
965
36
850
68
122
766
279
127
300
44
573
213
641
608
433
24
105
327
353
581
55
224
164
786
952
685
237
282
774
589
725
232
715
157
668
453
520
954
676
153
221
413
313
662
714
390
365
960
557
455
6
275
382
605
617
529
359
909
37
845
843
461
100
241
892
23
322
663
630
790
564
490
283
927
458
63
943
526
891
523
670
1000
80
655
398
391
512
197
492
112
131
876
265
730
840
881
811
504
132
15
617
181
5
827
523
366
381
885
940
650
937
624
721
150
888
30
189
555
238
356
836
103
32
703
636
307
328
38
293
890
137
434
42
751
179
670
537
30
559
359
524
284
424
430
365
510
180
631
955
22
808
707
928
564
433
596
720
800
211
726
971
967
800
17
968
812
141
941
306
186
532
50
996
148
987
653
530
938
502
220
864
253
259
857
960
138
741
575
812
405
997
772
541
888
69
196
269
449
941
236
273
540
369
955
311
990
600
822
79
615
837
407
750
542
729
906
325
600
558
148
383